DATA 612 - Project 3
…
# Scooby-Doo IMDB Rating

### Data ETL

- Access per 5-year period

```r
scooby_pivot %>%
  mutate(year_aired_2 = 5 * ((lubridate::year(date_aired) + 1) %/% 5)) %>%
  select(date_aired, year_aired_2)
```

```
## # A tibble: 554 × 2
##    date_aired year_aired_2
##    <date>            <dbl>
##  1 1969-09-13         1970
##  2 1969-09-13         1970
##  3 1969-09-20         1970
##  4 1969-09-27         1970
##  5 1969-10-04         1970
##  6 1969-10-11         1970
##  7 1969-10-18         1970
##  8 1969-10-25         1970
##  9 1969-11-08         1970
## 10 1969-11-15         1970
## # … with 544 more rows
```
…
- Use `median(imdb)` rating to avoid possible outliers

```r
scooby_pivot %>%
  mutate(year_aired_2 = 5 * ((lubridate::year(date_aired) + 1) %/% 5)) %>%
  group_by(year_aired_2, format) %>%
* mutate(avg_rating = median(as.double(imdb)))
```

```
## Warning in median(as.double(imdb)): NAs introduced by coercion
```

```
## # A tibble: 554 × 23
## # Groups:   year_aired_2, format [27]
##    index series_name  network season title  imdb  engagement date_aired run_time
##    <dbl> <chr>        <chr>   <chr>  <chr>  <chr> <chr>      <date>        <dbl>
##  1     1 Scooby Doo,… CBS     1      What … 8.1   556        1969-09-13       21
##  2     1 Scooby Doo,… CBS     1      What … 8.1   556        1969-09-13       21
##  3     2 Scooby Doo,… CBS     1      A Clu… 8.1   479        1969-09-20       22
##  4     3 Scooby Doo,… CBS     1      Hassl… 8     455        1969-09-27       21
##  5     4 Scooby Doo,… CBS     1      Mine … 7.8   426        1969-10-04       21
##  6     5 Scooby Doo,… CBS     1      Decoy… 7.5   391        1969-10-11       21
##  7     6 Scooby Doo,… CBS     1      What … 8.4   384        1969-10-18       21
##  8     7 Scooby Doo,… CBS     1      Never… 7.6   358        1969-10-25       21
##  9     9 Scooby Doo,… CBS     1      The B… 8.1   371        1969-11-08       21
## 10    10 Scooby Doo,… CBS     1      Bedla… 8     346        1969-11-15       21
## # … with 544 more rows, and 14 more variables: format <chr>,
## #   monster_name <chr>, monster_gender <chr>, monster_type <chr>,
## #   monster_subtype <chr>, monster_species <chr>, setting_terrain <chr>,
## #   setting_country_state <chr>, year_aired <dbl>, monster_real <chr>,
## #   who_caught_the_villains <chr>, was_the_villains_caught <dbl>,
## #   year_aired_2 <dbl>, avg_rating <dbl>
```
…
